\relax 
\providecommand\hyper@newdestlabel[2]{}
\providecommand\HyperFirstAtBeginDocument{\AtBeginDocument}
\HyperFirstAtBeginDocument{\ifx\hyper@anchor\@undefined
\global\let\oldcontentsline\contentsline
\gdef\contentsline#1#2#3#4{\oldcontentsline{#1}{#2}{#3}}
\global\let\oldnewlabel\newlabel
\gdef\newlabel#1#2{\newlabelxx{#1}#2}
\gdef\newlabelxx#1#2#3#4#5#6{\oldnewlabel{#1}{{#2}{#3}}}
\AtEndDocument{\ifx\hyper@anchor\@undefined
\let\contentsline\oldcontentsline
\let\newlabel\oldnewlabel
\fi}
\fi}
\global\let\hyper@last\relax 
\gdef\HyperFirstAtBeginDocument#1{#1}
\providecommand\HyField@AuxAddToFields[1]{}
\providecommand\HyField@AuxAddToCoFields[2]{}
\citation{THULLIEZ2022166187}
\@writefile{toc}{\contentsline {chapter}{\numberline {1}Macroscopic}{2}{chapter.1}\protected@file@percent }
\@writefile{lof}{\addvspace {10\p@ }}
\@writefile{lot}{\addvspace {10\p@ }}
\@writefile{lof}{\contentsline {figure}{\numberline {1.1}{\ignorespaces Model of the macroscopic benchmark with 50 primary particles.}}{2}{figure.1.1}\protected@file@percent }
\@writefile{toc}{\contentsline {section}{\numberline {1.1}G4NDL45\_ENDFB71\_HP}{3}{section.1.1}\protected@file@percent }
\@writefile{toc}{\contentsline {subsection}{\numberline {1.1.1}ALUMINIUM\_METAL 294 K}{4}{subsection.1.1.1}\protected@file@percent }
\@writefile{lof}{\contentsline {figure}{\numberline {1.2}{\ignorespaces Comparison of neutron flux calculated by Geant4, Tripoli{-}4 and MCNP6.2.}}{4}{figure.1.2}\protected@file@percent }
\@writefile{toc}{\contentsline {subsection}{\numberline {1.1.2}BERYLLIUM\_METAL 296 K}{5}{subsection.1.1.2}\protected@file@percent }
\@writefile{lof}{\contentsline {figure}{\numberline {1.3}{\ignorespaces Comparison of neutron flux calculated by Geant4, Tripoli{-}4 and MCNP6.2.}}{5}{figure.1.3}\protected@file@percent }
\@writefile{toc}{\contentsline {subsection}{\numberline {1.1.3}BERYLLIUM\_OXIDE 294 K}{6}{subsection.1.1.3}\protected@file@percent }
\@writefile{lof}{\contentsline {figure}{\numberline {1.4}{\ignorespaces Comparison of neutron flux calculated by Geant4, Tripoli{-}4 and MCNP6.2.}}{6}{figure.1.4}\protected@file@percent }
\@writefile{toc}{\contentsline {subsection}{\numberline {1.1.4}GRAPHITE 296 K}{7}{subsection.1.1.4}\protected@file@percent }
\@writefile{lof}{\contentsline {figure}{\numberline {1.5}{\ignorespaces Comparison of neutron flux calculated by Geant4, Tripoli{-}4 and MCNP6.2.}}{7}{figure.1.5}\protected@file@percent }
\@writefile{toc}{\contentsline {subsection}{\numberline {1.1.5}LIGHT\_WATER 294 K}{8}{subsection.1.1.5}\protected@file@percent }
\@writefile{lof}{\contentsline {figure}{\numberline {1.6}{\ignorespaces Comparison of neutron flux calculated by Geant4, Tripoli{-}4 and MCNP6.2.}}{8}{figure.1.6}\protected@file@percent }
\@writefile{toc}{\contentsline {subsection}{\numberline {1.1.6}PARA\_HYDROGEN 20 K}{9}{subsection.1.1.6}\protected@file@percent }
\@writefile{lof}{\contentsline {figure}{\numberline {1.7}{\ignorespaces Comparison of neutron flux calculated by Geant4, Tripoli{-}4 and MCNP6.2.}}{9}{figure.1.7}\protected@file@percent }
\@writefile{toc}{\contentsline {subsection}{\numberline {1.1.7}POLYETHYLENE 296 K}{10}{subsection.1.1.7}\protected@file@percent }
\@writefile{lof}{\contentsline {figure}{\numberline {1.8}{\ignorespaces Comparison of neutron flux calculated by Geant4, Tripoli{-}4 and MCNP6.2.}}{10}{figure.1.8}\protected@file@percent }
\citation{THULLIEZ2022166187}
\@writefile{toc}{\contentsline {section}{\numberline {1.2}G4NDL47\_ENDFB80\_HP}{11}{section.1.2}\protected@file@percent }
\citation{TRAN201884}
\citation{HARTLING201825}
\citation{TRAN201884}
\citation{THULLIEZ2022166187}
\@writefile{toc}{\contentsline {chapter}{\numberline {2}Microscopic}{12}{chapter.2}\protected@file@percent }
\@writefile{lof}{\addvspace {10\p@ }}
\@writefile{lot}{\addvspace {10\p@ }}
\@writefile{lof}{\contentsline {figure}{\numberline {2.1}{\ignorespaces Detailed view of the enlarged model of the microscopic benchmark with 50 primary particles.}}{12}{figure.2.1}\protected@file@percent }
\@writefile{toc}{\contentsline {section}{\numberline {2.1}G4NDL45\_ENDFB71\_HP}{13}{section.2.1}\protected@file@percent }
\@writefile{toc}{\contentsline {subsection}{\numberline {2.1.1}BERYLLIUM\_METAL 296 K}{14}{subsection.2.1.1}\protected@file@percent }
\@writefile{toc}{\contentsline {subsubsection}{Energy}{14}{section*.2}\protected@file@percent }
\@writefile{lof}{\contentsline {figure}{\numberline {2.2}{\ignorespaces Comparison of scattered neutron energy calculated by Geant4, Tripoli-4 and MCNP6.2.}}{14}{figure.2.2}\protected@file@percent }
\@writefile{toc}{\contentsline {subsubsection}{Angle}{15}{section*.3}\protected@file@percent }
\@writefile{lof}{\contentsline {figure}{\numberline {2.3}{\ignorespaces Comparison of $\qopname  \relax o{cos}\theta $ of scattered neutron calculated by Geant4, Tripoli-4 and MCNP6.2.}}{15}{figure.2.3}\protected@file@percent }
\@writefile{toc}{\contentsline {subsection}{\numberline {2.1.2}BERYLLIUM\_OXIDE 294 K}{16}{subsection.2.1.2}\protected@file@percent }
\@writefile{toc}{\contentsline {subsubsection}{Energy}{16}{section*.4}\protected@file@percent }
\@writefile{lof}{\contentsline {figure}{\numberline {2.4}{\ignorespaces Comparison of scattered neutron energy calculated by Geant4, Tripoli-4 and MCNP6.2.}}{16}{figure.2.4}\protected@file@percent }
\@writefile{toc}{\contentsline {subsubsection}{Angle}{17}{section*.5}\protected@file@percent }
\@writefile{lof}{\contentsline {figure}{\numberline {2.5}{\ignorespaces Comparison of $\qopname  \relax o{cos}\theta $ of scattered neutron calculated by Geant4, Tripoli-4 and MCNP6.2.}}{17}{figure.2.5}\protected@file@percent }
\@writefile{toc}{\contentsline {subsection}{\numberline {2.1.3}GRAPHITE 296 K}{18}{subsection.2.1.3}\protected@file@percent }
\@writefile{toc}{\contentsline {subsubsection}{Energy}{18}{section*.6}\protected@file@percent }
\@writefile{lof}{\contentsline {figure}{\numberline {2.6}{\ignorespaces Comparison of scattered neutron energy calculated by Geant4, Tripoli-4 and MCNP6.2.}}{18}{figure.2.6}\protected@file@percent }
\@writefile{toc}{\contentsline {subsubsection}{Angle}{19}{section*.7}\protected@file@percent }
\@writefile{lof}{\contentsline {figure}{\numberline {2.7}{\ignorespaces Comparison of $\qopname  \relax o{cos}\theta $ of scattered neutron calculated by Geant4, Tripoli-4 and MCNP6.2.}}{19}{figure.2.7}\protected@file@percent }
\@writefile{toc}{\contentsline {subsection}{\numberline {2.1.4}LIGHT\_WATER 294 K}{20}{subsection.2.1.4}\protected@file@percent }
\@writefile{toc}{\contentsline {subsubsection}{Energy}{20}{section*.8}\protected@file@percent }
\@writefile{lof}{\contentsline {figure}{\numberline {2.8}{\ignorespaces Comparison of scattered neutron energy calculated by Geant4, Tripoli-4 and MCNP6.2.}}{20}{figure.2.8}\protected@file@percent }
\@writefile{toc}{\contentsline {subsubsection}{Angle}{21}{section*.9}\protected@file@percent }
\@writefile{lof}{\contentsline {figure}{\numberline {2.9}{\ignorespaces Comparison of $\qopname  \relax o{cos}\theta $ of scattered neutron calculated by Geant4, Tripoli-4 and MCNP6.2.}}{21}{figure.2.9}\protected@file@percent }
\@writefile{toc}{\contentsline {subsection}{\numberline {2.1.5}PARA\_HYDROGEN 20 K}{22}{subsection.2.1.5}\protected@file@percent }
\@writefile{toc}{\contentsline {subsubsection}{Energy}{22}{section*.10}\protected@file@percent }
\@writefile{lof}{\contentsline {figure}{\numberline {2.10}{\ignorespaces Comparison of scattered neutron energy calculated by Geant4, Tripoli-4 and MCNP6.2.}}{22}{figure.2.10}\protected@file@percent }
\@writefile{toc}{\contentsline {subsubsection}{Angle}{23}{section*.11}\protected@file@percent }
\@writefile{lof}{\contentsline {figure}{\numberline {2.11}{\ignorespaces Comparison of $\qopname  \relax o{cos}\theta $ of scattered neutron calculated by Geant4, Tripoli-4 and MCNP6.2.}}{23}{figure.2.11}\protected@file@percent }
\@writefile{toc}{\contentsline {subsection}{\numberline {2.1.6}POLYETHYLENE 296 K}{24}{subsection.2.1.6}\protected@file@percent }
\@writefile{toc}{\contentsline {subsubsection}{Energy}{24}{section*.12}\protected@file@percent }
\@writefile{lof}{\contentsline {figure}{\numberline {2.12}{\ignorespaces Comparison of scattered neutron energy calculated by Geant4, Tripoli-4 and MCNP6.2.}}{24}{figure.2.12}\protected@file@percent }
\@writefile{toc}{\contentsline {subsubsection}{Angle}{25}{section*.13}\protected@file@percent }
\@writefile{lof}{\contentsline {figure}{\numberline {2.13}{\ignorespaces Comparison of $\qopname  \relax o{cos}\theta $ of scattered neutron calculated by Geant4, Tripoli-4 and MCNP6.2.}}{25}{figure.2.13}\protected@file@percent }
\citation{THULLIEZ2022166187}
\@writefile{toc}{\contentsline {section}{\numberline {2.2}G4NDL47\_ENDFB80\_HP}{26}{section.2.2}\protected@file@percent }
\@writefile{toc}{\contentsline {subsection}{\numberline {2.2.1}POLYETHYLENE 77 K}{27}{subsection.2.2.1}\protected@file@percent }
\@writefile{toc}{\contentsline {subsubsection}{Energy}{27}{section*.14}\protected@file@percent }
\@writefile{lof}{\contentsline {figure}{\numberline {2.14}{\ignorespaces Comparison of scattered neutron energy calculated by Geant4, Tripoli-4 and MCNP6.2.}}{27}{figure.2.14}\protected@file@percent }
\@writefile{toc}{\contentsline {subsubsection}{Angle}{28}{section*.15}\protected@file@percent }
\@writefile{lof}{\contentsline {figure}{\numberline {2.15}{\ignorespaces Comparison of $\qopname  \relax o{cos}\theta $ of scattered neutron calculated by Geant4, Tripoli-4 and MCNP6.2.}}{28}{figure.2.15}\protected@file@percent }
\@writefile{toc}{\contentsline {subsection}{\numberline {2.2.2}POLYETHYLENE 294 K}{29}{subsection.2.2.2}\protected@file@percent }
\@writefile{toc}{\contentsline {subsubsection}{Energy}{29}{section*.16}\protected@file@percent }
\@writefile{lof}{\contentsline {figure}{\numberline {2.16}{\ignorespaces Comparison of scattered neutron energy calculated by Geant4, Tripoli-4 and MCNP6.2.}}{29}{figure.2.16}\protected@file@percent }
\@writefile{toc}{\contentsline {subsubsection}{Angle}{30}{section*.17}\protected@file@percent }
\@writefile{lof}{\contentsline {figure}{\numberline {2.17}{\ignorespaces Comparison of $\qopname  \relax o{cos}\theta $ of scattered neutron calculated by Geant4, Tripoli-4 and MCNP6.2.}}{30}{figure.2.17}\protected@file@percent }
\bibstyle{plain}
\bibdata{/local/home/mz272279/NeutronHPBenchmarkApp/Scripts/auxiliary/references}
\bibcite{HARTLING201825}{1}
\bibcite{THULLIEZ2022166187}{2}
\bibcite{TRAN201884}{3}
\@writefile{toc}{\contentsline {chapter}{\numberline {A}Material descriptions}{32}{appendix.A}\protected@file@percent }
\@writefile{lof}{\addvspace {10\p@ }}
\@writefile{lot}{\addvspace {10\p@ }}
\@writefile{toc}{\contentsline {subsubsection}{ALUMINIUM\_METAL}{32}{section*.19}\protected@file@percent }
\@writefile{toc}{\contentsline {subsubsection}{BERYLLIUM\_METAL}{32}{section*.20}\protected@file@percent }
\@writefile{toc}{\contentsline {subsubsection}{BERYLLIUM\_OXIDE}{32}{section*.21}\protected@file@percent }
\@writefile{toc}{\contentsline {subsubsection}{GRAPHITE}{32}{section*.22}\protected@file@percent }
\@writefile{toc}{\contentsline {subsubsection}{LIGHT\_WATER}{32}{section*.23}\protected@file@percent }
\@writefile{toc}{\contentsline {subsubsection}{PARA\_HYDROGEN}{33}{section*.24}\protected@file@percent }
\@writefile{toc}{\contentsline {subsubsection}{POLYETHYLENE}{33}{section*.25}\protected@file@percent }
